%YAML 1.1
%TAG !u! tag:unity3d.com,2011:
--- !u!29 &1
OcclusionCullingSettings:
  m_ObjectHideFlags: 0
  serializedVersion: 2
  m_OcclusionBakeSettings:
    smallestOccluder: 5
    smallestHole: 0.25
    backfaceThreshold: 100
  m_SceneGUID: 00000000000000000000000000000000
  m_OcclusionCullingData: {fileID: 0}
--- !u!104 &2
RenderSettings:
  m_ObjectHideFlags: 0
  serializedVersion: 9
  m_Fog: 0
  m_FogColor: {r: 0.5, g: 0.5, b: 0.5, a: 1}
  m_FogMode: 3
  m_FogDensity: 0.01
  m_LinearFogStart: 0
  m_LinearFogEnd: 300
  m_AmbientSkyColor: {r: 0.212, g: 0.227, b: 0.259, a: 1}
  m_AmbientEquatorColor: {r: 0.114, g: 0.125, b: 0.133, a: 1}
  m_AmbientGroundColor: {r: 0.047, g: 0.043, b: 0.035, a: 1}
  m_AmbientIntensity: 1
  m_AmbientMode: 0
  m_SubtractiveShadowColor: {r: 0.42, g: 0.478, b: 0.627, a: 1}
  m_SkyboxMaterial: {fileID: 10304, guid: 0000000000000000f000000000000000, type: 0}
  m_HaloStrength: 0.5
  m_FlareStrength: 1
  m_FlareFadeSpeed: 3
  m_HaloTexture: {fileID: 0}
  m_SpotCookie: {fileID: 10001, guid: 0000000000000000e000000000000000, type: 0}
  m_DefaultReflectionMode: 0
  m_DefaultReflectionResolution: 128
  m_ReflectionBounces: 1
  m_ReflectionIntensity: 1
  m_CustomReflection: {fileID: 0}
  m_Sun: {fileID: 705507994}
  m_IndirectSpecularColor: {r: 0.18028378, g: 0.22571412, b: 0.30692285, a: 1}
  m_UseRadianceAmbientProbe: 0
--- !u!157 &3
LightmapSettings:
  m_ObjectHideFlags: 0
  serializedVersion: 12
  m_GIWorkflowMode: 0
  m_GISettings:
    serializedVersion: 2
    m_BounceScale: 1
    m_IndirectOutputScale: 1
    m_AlbedoBoost: 1
    m_EnvironmentLightingMode: 0
    m_EnableBakedLightmaps: 1
    m_EnableRealtimeLightmaps: 0
  m_LightmapEditorSettings:
    serializedVersion: 12
    m_Resolution: 2
    m_BakeResolution: 40
    m_AtlasSize: 1024
    m_AO: 0
    m_AOMaxDistance: 1
    m_CompAOExponent: 1
    m_CompAOExponentDirect: 0
    m_ExtractAmbientOcclusion: 0
    m_Padding: 2
    m_LightmapParameters: {fileID: 0}
    m_LightmapsBakeMode: 1
    m_TextureCompression: 1
    m_FinalGather: 0
    m_FinalGatherFiltering: 1
    m_FinalGatherRayCount: 256
    m_ReflectionCompression: 2
    m_MixedBakeMode: 2
    m_BakeBackend: 1
    m_PVRSampling: 1
    m_PVRDirectSampleCount: 32
    m_PVRSampleCount: 500
    m_PVRBounces: 2
    m_PVREnvironmentSampleCount: 500
    m_PVREnvironmentReferencePointCount: 2048
    m_PVRFilteringMode: 2
    m_PVRDenoiserTypeDirect: 0
    m_PVRDenoiserTypeIndirect: 0
    m_PVRDenoiserTypeAO: 0
    m_PVRFilterTypeDirect: 0
    m_PVRFilterTypeIndirect: 0
    m_PVRFilterTypeAO: 0
    m_PVREnvironmentMIS: 0
    m_PVRCulling: 1
    m_PVRFilteringGaussRadiusDirect: 1
    m_PVRFilteringGaussRadiusIndirect: 5
    m_PVRFilteringGaussRadiusAO: 2
    m_PVRFilteringAtrousPositionSigmaDirect: 0.5
    m_PVRFilteringAtrousPositionSigmaIndirect: 2
    m_PVRFilteringAtrousPositionSigmaAO: 1
    m_ExportTrainingData: 0
    m_TrainingDataDestination: TrainingData
    m_LightProbeSampleCountMultiplier: 4
  m_LightingDataAsset: {fileID: 112000000, guid: 4d47556d9ca8a6a49945a1a910ed052c,
    type: 2}
  m_LightingSettings: {fileID: 4890085278179872738, guid: 111e6f8eb6348e845a1123a004e9e411,
    type: 2}
--- !u!196 &4
NavMeshSettings:
  serializedVersion: 2
  m_ObjectHideFlags: 0
  m_BuildSettings:
    serializedVersion: 2
    agentTypeID: 0
    agentRadius: 0.5
    agentHeight: 2
    agentSlope: 45
    agentClimb: 0.4
    ledgeDropHeight: 0
    maxJumpAcrossDistance: 0
    minRegionArea: 2
    manualCellSize: 0
    cellSize: 0.16666667
    manualTileSize: 0
    tileSize: 256
    accuratePlacement: 0
    maxJobWorkers: 0
    preserveTilesOutsideBounds: 0
    debug:
      m_Flags: 0
  m_NavMeshData: {fileID: 0}
--- !u!1001 &180327563
PrefabInstance:
  m_ObjectHideFlags: 0
  serializedVersion: 2
  m_Modification:
    m_TransformParent: {fileID: 183660408}
    m_Modifications:
    - target: {fileID: 1833891481169546174, guid: a61efc67d16e5994c98d4c644b5a5822,
        type: 3}
      propertyPath: m_Name
      value: 'Set plane detection mode: None'
      objectReference: {fileID: 0}
    - target: {fileID: 3973135738514450453, guid: a61efc67d16e5994c98d4c644b5a5822,
        type: 3}
      propertyPath: m_Text
      value: 'Set plane detection

        mode: None'
      objectReference: {fileID: 0}
    - target: {fileID: 4421050970632821918, guid: a61efc67d16e5994c98d4c644b5a5822,
        type: 3}
      propertyPath: m_RootOrder
      value: 0
      objectReference: {fileID: 0}
    - target: {fileID: 4421050970632821918, guid: a61efc67d16e5994c98d4c644b5a5822,
        type: 3}
      propertyPath: m_LocalPosition.x
      value: -0.19113785
      objectReference: {fileID: 0}
    - target: {fileID: 4421050970632821918, guid: a61efc67d16e5994c98d4c644b5a5822,
        type: 3}
      propertyPath: m_LocalPosition.y
      value: -0.15031466
      objectReference: {fileID: 0}
    - target: {fileID: 4421050970632821918, guid: a61efc67d16e5994c98d4c644b5a5822,
        type: 3}
      propertyPath: m_LocalPosition.z
      value: -0.16217044
      objectReference: {fileID: 0}
    - target: {fileID: 4421050970632821918, guid: a61efc67d16e5994c98d4c644b5a5822,
        type: 3}
      propertyPath: m_LocalRotation.w
      value: 1
      objectReference: {fileID: 0}
    - target: {fileID: 4421050970632821918, guid: a61efc67d16e5994c98d4c644b5a5822,
        type: 3}
      propertyPath: m_LocalRotation.x
      value: -0
      objectReference: {fileID: 0}
    - target: {fileID: 4421050970632821918, guid: a61efc67d16e5994c98d4c644b5a5822,
        type: 3}
      propertyPath: m_LocalRotation.y
      value: -0
      objectReference: {fileID: 0}
    - target: {fileID: 4421050970632821918, guid: a61efc67d16e5994c98d4c644b5a5822,
        type: 3}
      propertyPath: m_LocalRotation.z
      value: -0
      objectReference: {fileID: 0}
    - target: {fileID: 4421050970632821918, guid: a61efc67d16e5994c98d4c644b5a5822,
        type: 3}
      propertyPath: m_LocalEulerAnglesHint.x
      value: 0
      objectReference: {fileID: 0}
    - target: {fileID: 4421050970632821918, guid: a61efc67d16e5994c98d4c644b5a5822,
        type: 3}
      propertyPath: m_LocalEulerAnglesHint.y
      value: 0
      objectReference: {fileID: 0}
    - target: {fileID: 4421050970632821918, guid: a61efc67d16e5994c98d4c644b5a5822,
        type: 3}
      propertyPath: m_LocalEulerAnglesHint.z
      value: 0
      objectReference: {fileID: 0}
    - target: {fileID: 5246070923546433650, guid: a61efc67d16e5994c98d4c644b5a5822,
        type: 3}
      propertyPath: OnAirTapped.m_PersistentCalls.m_Calls.Array.size
      value: 1
      objectReference: {fileID: 0}
    - target: {fileID: 5246070923546433650, guid: a61efc67d16e5994c98d4c644b5a5822,
        type: 3}
      propertyPath: OnAirTapped.m_PersistentCalls.m_Calls.Array.data[0].m_Mode
      value: 3
      objectReference: {fileID: 0}
    - target: {fileID: 5246070923546433650, guid: a61efc67d16e5994c98d4c644b5a5822,
        type: 3}
      propertyPath: OnAirTapped.m_PersistentCalls.m_Calls.Array.data[1].m_Mode
      value: 6
      objectReference: {fileID: 0}
    - target: {fileID: 5246070923546433650, guid: a61efc67d16e5994c98d4c644b5a5822,
        type: 3}
      propertyPath: OnAirTapped.m_PersistentCalls.m_Calls.Array.data[0].m_Target
      value: 
      objectReference: {fileID: 1158897731}
    - target: {fileID: 5246070923546433650, guid: a61efc67d16e5994c98d4c644b5a5822,
        type: 3}
      propertyPath: OnAirTapped.m_PersistentCalls.m_Calls.Array.data[1].m_Target
      value: 
      objectReference: {fileID: 1158897731}
    - target: {fileID: 5246070923546433650, guid: a61efc67d16e5994c98d4c644b5a5822,
        type: 3}
      propertyPath: OnAirTapped.m_PersistentCalls.m_Calls.Array.data[0].m_CallState
      value: 2
      objectReference: {fileID: 0}
    - target: {fileID: 5246070923546433650, guid: a61efc67d16e5994c98d4c644b5a5822,
        type: 3}
      propertyPath: OnAirTapped.m_PersistentCalls.m_Calls.Array.data[1].m_CallState
      value: 2
      objectReference: {fileID: 0}
    - target: {fileID: 5246070923546433650, guid: a61efc67d16e5994c98d4c644b5a5822,
        type: 3}
      propertyPath: OnAirTapped.m_PersistentCalls.m_Calls.Array.data[0].m_MethodName
      value: SetPlaneDetectionMode
      objectReference: {fileID: 0}
    - target: {fileID: 5246070923546433650, guid: a61efc67d16e5994c98d4c644b5a5822,
        type: 3}
      propertyPath: OnAirTapped.m_PersistentCalls.m_Calls.Array.data[1].m_MethodName
      value: set_enabled
      objectReference: {fileID: 0}
    - target: {fileID: 5246070923546433650, guid: a61efc67d16e5994c98d4c644b5a5822,
        type: 3}
      propertyPath: OnAirTapped.m_PersistentCalls.m_Calls.Array.data[0].m_TargetAssemblyTypeName
      value: Microsoft.MixedReality.OpenXR.Samples.PlanesSample, Assembly-CSharp
      objectReference: {fileID: 0}
    - target: {fileID: 5246070923546433650, guid: a61efc67d16e5994c98d4c644b5a5822,
        type: 3}
      propertyPath: OnAirTapped.m_PersistentCalls.m_Calls.Array.data[1].m_TargetAssemblyTypeName
      value: UnityEngine.Behaviour, UnityEngine
      objectReference: {fileID: 0}
    - target: {fileID: 5246070923546433650, guid: a61efc67d16e5994c98d4c644b5a5822,
        type: 3}
      propertyPath: OnAirTapped.m_PersistentCalls.m_Calls.Array.data[0].m_Arguments.m_IntArgument
      value: 0
      objectReference: {fileID: 0}
    - target: {fileID: 5246070923546433650, guid: a61efc67d16e5994c98d4c644b5a5822,
        type: 3}
      propertyPath: OnAirTapped.m_PersistentCalls.m_Calls.Array.data[0].m_Arguments.m_StringArgument
      value: 
      objectReference: {fileID: 0}
    - target: {fileID: 5246070923546433650, guid: a61efc67d16e5994c98d4c644b5a5822,
        type: 3}
      propertyPath: OnAirTapped.m_PersistentCalls.m_Calls.Array.data[1].m_Arguments.m_StringArgument
      value: 
      objectReference: {fileID: 0}
    - target: {fileID: 5246070923546433650, guid: a61efc67d16e5994c98d4c644b5a5822,
        type: 3}
      propertyPath: OnAirTapped.m_PersistentCalls.m_Calls.Array.data[0].m_Arguments.m_ObjectArgumentAssemblyTypeName
      value: UnityEngine.Object, UnityEngine
      objectReference: {fileID: 0}
    - target: {fileID: 5246070923546433650, guid: a61efc67d16e5994c98d4c644b5a5822,
        type: 3}
      propertyPath: OnAirTapped.m_PersistentCalls.m_Calls.Array.data[1].m_Arguments.m_ObjectArgumentAssemblyTypeName
      value: UnityEngine.Object, UnityEngine
      objectReference: {fileID: 0}
    m_RemovedComponents: []
  m_SourcePrefab: {fileID: 100100000, guid: a61efc67d16e5994c98d4c644b5a5822, type: 3}
--- !u!4 &180327564 stripped
Transform:
  m_CorrespondingSourceObject: {fileID: 4421050970632821918, guid: a61efc67d16e5994c98d4c644b5a5822,
    type: 3}
  m_PrefabInstance: {fileID: 180327563}
  m_PrefabAsset: {fileID: 0}
--- !u!1 &180327565 stripped
GameObject:
  m_CorrespondingSourceObject: {fileID: 1833891481169546174, guid: a61efc67d16e5994c98d4c644b5a5822,
    type: 3}
  m_PrefabInstance: {fileID: 180327563}
  m_PrefabAsset: {fileID: 0}
--- !u!114 &180327566
MonoBehaviour:
  m_ObjectHideFlags: 0
  m_CorrespondingSourceObject: {fileID: 0}
  m_PrefabInstance: {fileID: 0}
  m_PrefabAsset: {fileID: 0}
  m_GameObject: {fileID: 180327565}
  m_Enabled: 1
  m_EditorHideFlags: 0
  m_Script: {fileID: 11500000, guid: fcac2d8dbc14139409e77b5ed36498db, type: 3}
  m_Name: 
  m_EditorClassIdentifier: 
--- !u!1 &183660407
GameObject:
  m_ObjectHideFlags: 0
  m_CorrespondingSourceObject: {fileID: 0}
  m_PrefabInstance: {fileID: 0}
  m_PrefabAsset: {fileID: 0}
  serializedVersion: 6
  m_Component:
  - component: {fileID: 183660408}
  m_Layer: 0
  m_Name: Plane Detection Mode Buttons
  m_TagString: Untagged
  m_Icon: {fileID: 0}
  m_NavMeshLayer: 0
  m_StaticEditorFlags: 0
  m_IsActive: 1
--- !u!4 &183660408
Transform:
  m_ObjectHideFlags: 0
  m_CorrespondingSourceObject: {fileID: 0}
  m_PrefabInstance: {fileID: 0}
  m_PrefabAsset: {fileID: 0}
  m_GameObject: {fileID: 183660407}
  m_LocalRotation: {x: 0, y: 0, z: 0, w: 1}
  m_LocalPosition: {x: -0.008862153, y: 0.05031465, z: 0.56217045}
  m_LocalScale: {x: 1, y: 1, z: 1}
  m_Children:
  - {fileID: 180327564}
  - {fileID: 950971708}
  - {fileID: 239818502}
  - {fileID: 1776374805}
  m_Father: {fileID: 0}
  m_RootOrder: 4
  m_LocalEulerAnglesHint: {x: 0, y: 0, z: 0}
--- !u!1 &223974226
GameObject:
  m_ObjectHideFlags: 0
  m_CorrespondingSourceObject: {fileID: 0}
  m_PrefabInstance: {fileID: 0}
  m_PrefabAsset: {fileID: 0}
  serializedVersion: 6
  m_Component:
  - component: {fileID: 223974228}
  - component: {fileID: 223974227}
  m_Layer: 0
  m_Name: AR Session
  m_TagString: Untagged
  m_Icon: {fileID: 0}
  m_NavMeshLayer: 0
  m_StaticEditorFlags: 0
  m_IsActive: 1
--- !u!114 &223974227
MonoBehaviour:
  m_ObjectHideFlags: 0
  m_CorrespondingSourceObject: {fileID: 0}
  m_PrefabInstance: {fileID: 0}
  m_PrefabAsset: {fileID: 0}
  m_GameObject: {fileID: 223974226}
  m_Enabled: 1
  m_EditorHideFlags: 0
  m_Script: {fileID: 11500000, guid: 3859a92a05d4f5d418cb6ca605290e74, type: 3}
  m_Name: 
  m_EditorClassIdentifier: 
  m_AttemptUpdate: 1
  m_MatchFrameRate: 1
  m_TrackingMode: 2
--- !u!4 &223974228
Transform:
  m_ObjectHideFlags: 0
  m_CorrespondingSourceObject: {fileID: 0}
  m_PrefabInstance: {fileID: 0}
  m_PrefabAsset: {fileID: 0}
  m_GameObject: {fileID: 223974226}
  m_LocalRotation: {x: 0, y: 0, z: 0, w: 1}
  m_LocalPosition: {x: 0, y: 0, z: 0}
  m_LocalScale: {x: 1, y: 1, z: 1}
  m_Children: []
  m_Father: {fileID: 0}
  m_RootOrder: 1
  m_LocalEulerAnglesHint: {x: 0, y: 0, z: 0}
--- !u!1001 &239818501
PrefabInstance:
  m_ObjectHideFlags: 0
  serializedVersion: 2
  m_Modification:
    m_TransformParent: {fileID: 183660408}
    m_Modifications:
    - target: {fileID: 1833891481169546174, guid: a61efc67d16e5994c98d4c644b5a5822,
        type: 3}
      propertyPath: m_Name
      value: 'Set plane detection mode: Vertical'
      objectReference: {fileID: 0}
    - target: {fileID: 3973135738514450453, guid: a61efc67d16e5994c98d4c644b5a5822,
        type: 3}
      propertyPath: m_Text
      value: 'Set plane detection

        mode: Vertical'
      objectReference: {fileID: 0}
    - target: {fileID: 4421050970632821918, guid: a61efc67d16e5994c98d4c644b5a5822,
        type: 3}
      propertyPath: m_RootOrder
      value: 2
      objectReference: {fileID: 0}
    - target: {fileID: 4421050970632821918, guid: a61efc67d16e5994c98d4c644b5a5822,
        type: 3}
      propertyPath: m_LocalPosition.x
      value: 0.20886216
      objectReference: {fileID: 0}
    - target: {fileID: 4421050970632821918, guid: a61efc67d16e5994c98d4c644b5a5822,
        type: 3}
      propertyPath: m_LocalPosition.y
      value: -0.15031466
      objectReference: {fileID: 0}
    - target: {fileID: 4421050970632821918, guid: a61efc67d16e5994c98d4c644b5a5822,
        type: 3}
      propertyPath: m_LocalPosition.z
      value: -0.16217044
      objectReference: {fileID: 0}
    - target: {fileID: 4421050970632821918, guid: a61efc67d16e5994c98d4c644b5a5822,
        type: 3}
      propertyPath: m_LocalRotation.w
      value: 1
      objectReference: {fileID: 0}
    - target: {fileID: 4421050970632821918, guid: a61efc67d16e5994c98d4c644b5a5822,
        type: 3}
      propertyPath: m_LocalRotation.x
      value: -0
      objectReference: {fileID: 0}
    - target: {fileID: 4421050970632821918, guid: a61efc67d16e5994c98d4c644b5a5822,
        type: 3}
      propertyPath: m_LocalRotation.y
      value: -0
      objectReference: {fileID: 0}
    - target: {fileID: 4421050970632821918, guid: a61efc67d16e5994c98d4c644b5a5822,
        type: 3}
      propertyPath: m_LocalRotation.z
      value: -0
      objectReference: {fileID: 0}
    - target: {fileID: 4421050970632821918, guid: a61efc67d16e5994c98d4c644b5a5822,
        type: 3}
      propertyPath: m_LocalEulerAnglesHint.x
      value: 0
      objectReference: {fileID: 0}
    - target: {fileID: 4421050970632821918, guid: a61efc67d16e5994c98d4c644b5a5822,
        type: 3}
      propertyPath: m_LocalEulerAnglesHint.y
      value: 0
      objectReference: {fileID: 0}
    - target: {fileID: 4421050970632821918, guid: a61efc67d16e5994c98d4c644b5a5822,
        type: 3}
      propertyPath: m_LocalEulerAnglesHint.z
      value: 0
      objectReference: {fileID: 0}
    - target: {fileID: 5246070923546433650, guid: a61efc67d16e5994c98d4c644b5a5822,
        type: 3}
      propertyPath: OnAirTapped.m_PersistentCalls.m_Calls.Array.size
      value: 1
      objectReference: {fileID: 0}
    - target: {fileID: 5246070923546433650, guid: a61efc67d16e5994c98d4c644b5a5822,
        type: 3}
      propertyPath: OnAirTapped.m_PersistentCalls.m_Calls.Array.data[0].m_Mode
      value: 3
      objectReference: {fileID: 0}
    - target: {fileID: 5246070923546433650, guid: a61efc67d16e5994c98d4c644b5a5822,
        type: 3}
      propertyPath: OnAirTapped.m_PersistentCalls.m_Calls.Array.data[0].m_Target
      value: 
      objectReference: {fileID: 1158897731}
    - target: {fileID: 5246070923546433650, guid: a61efc67d16e5994c98d4c644b5a5822,
        type: 3}
      propertyPath: OnAirTapped.m_PersistentCalls.m_Calls.Array.data[0].m_CallState
      value: 2
      objectReference: {fileID: 0}
    - target: {fileID: 5246070923546433650, guid: a61efc67d16e5994c98d4c644b5a5822,
        type: 3}
      propertyPath: OnAirTapped.m_PersistentCalls.m_Calls.Array.data[0].m_MethodName
      value: SetPlaneDetectionMode
      objectReference: {fileID: 0}
    - target: {fileID: 5246070923546433650, guid: a61efc67d16e5994c98d4c644b5a5822,
        type: 3}
      propertyPath: OnAirTapped.m_PersistentCalls.m_Calls.Array.data[0].m_TargetAssemblyTypeName
      value: Microsoft.MixedReality.OpenXR.Samples.PlanesSample, Assembly-CSharp
      objectReference: {fileID: 0}
    - target: {fileID: 5246070923546433650, guid: a61efc67d16e5994c98d4c644b5a5822,
        type: 3}
      propertyPath: OnAirTapped.m_PersistentCalls.m_Calls.Array.data[0].m_Arguments.m_IntArgument
      value: 2
      objectReference: {fileID: 0}
    - target: {fileID: 5246070923546433650, guid: a61efc67d16e5994c98d4c644b5a5822,
        type: 3}
      propertyPath: OnAirTapped.m_PersistentCalls.m_Calls.Array.data[0].m_Arguments.m_StringArgument
      value: SampleScene
      objectReference: {fileID: 0}
    - target: {fileID: 5246070923546433650, guid: a61efc67d16e5994c98d4c644b5a5822,
        type: 3}
      propertyPath: OnAirTapped.m_PersistentCalls.m_Calls.Array.data[0].m_Arguments.m_ObjectArgumentAssemblyTypeName
      value: UnityEngine.Object, UnityEngine
      objectReference: {fileID: 0}
    m_RemovedComponents: []
  m_SourcePrefab: {fileID: 100100000, guid: a61efc67d16e5994c98d4c644b5a5822, type: 3}
--- !u!4 &239818502 stripped
Transform:
  m_CorrespondingSourceObject: {fileID: 4421050970632821918, guid: a61efc67d16e5994c98d4c644b5a5822,
    type: 3}
  m_PrefabInstance: {fileID: 239818501}
  m_PrefabAsset: {fileID: 0}
--- !u!1 &239818503 stripped
GameObject:
  m_CorrespondingSourceObject: {fileID: 1833891481169546174, guid: a61efc67d16e5994c98d4c644b5a5822,
    type: 3}
  m_PrefabInstance: {fileID: 239818501}
  m_PrefabAsset: {fileID: 0}
--- !u!114 &239818504
MonoBehaviour:
  m_ObjectHideFlags: 0
  m_CorrespondingSourceObject: {fileID: 0}
  m_PrefabInstance: {fileID: 0}
  m_PrefabAsset: {fileID: 0}
  m_GameObject: {fileID: 239818503}
  m_Enabled: 1
  m_EditorHideFlags: 0
  m_Script: {fileID: 11500000, guid: fcac2d8dbc14139409e77b5ed36498db, type: 3}
  m_Name: 
  m_EditorClassIdentifier: 
--- !u!1 &664740217
GameObject:
  m_ObjectHideFlags: 0
  m_CorrespondingSourceObject: {fileID: 0}
  m_PrefabInstance: {fileID: 0}
  m_PrefabAsset: {fileID: 0}
  serializedVersion: 6
  m_Component:
  - component: {fileID: 664740221}
  - component: {fileID: 664740220}
  - component: {fileID: 664740219}
  m_Layer: 0
  m_Name: Scene Information
  m_TagString: Untagged
  m_Icon: {fileID: 0}
  m_NavMeshLayer: 0
  m_StaticEditorFlags: 0
  m_IsActive: 1
--- !u!102 &664740219
TextMesh:
  serializedVersion: 3
  m_ObjectHideFlags: 0
  m_CorrespondingSourceObject: {fileID: 0}
  m_PrefabInstance: {fileID: 0}
  m_PrefabAsset: {fileID: 0}
  m_GameObject: {fileID: 664740217}
  m_Text: 'Plane Detection Sample Scene

    Planes found: [x]'
  m_OffsetZ: 0
  m_CharacterSize: 0.15
  m_LineSpacing: 1.2
  m_Anchor: 0
  m_Alignment: 0
  m_TabSize: 4
  m_FontSize: 0
  m_FontStyle: 0
  m_RichText: 1
  m_Font: {fileID: 10102, guid: 0000000000000000e000000000000000, type: 0}
  m_Color:
    serializedVersion: 2
    rgba: 4294967295
--- !u!23 &664740220
MeshRenderer:
  m_ObjectHideFlags: 0
  m_CorrespondingSourceObject: {fileID: 0}
  m_PrefabInstance: {fileID: 0}
  m_PrefabAsset: {fileID: 0}
  m_GameObject: {fileID: 664740217}
  m_Enabled: 1
  m_CastShadows: 1
  m_ReceiveShadows: 1
  m_DynamicOccludee: 1
  m_MotionVectors: 1
  m_LightProbeUsage: 1
  m_ReflectionProbeUsage: 1
  m_RayTracingMode: 2
  m_RayTraceProcedural: 0
  m_RenderingLayerMask: 1
  m_RendererPriority: 0
  m_Materials:
  - {fileID: 10100, guid: 0000000000000000e000000000000000, type: 0}
  m_StaticBatchInfo:
    firstSubMesh: 0
    subMeshCount: 0
  m_StaticBatchRoot: {fileID: 0}
  m_ProbeAnchor: {fileID: 0}
  m_LightProbeVolumeOverride: {fileID: 0}
  m_ScaleInLightmap: 1
  m_ReceiveGI: 1
  m_PreserveUVs: 0
  m_IgnoreNormalsForChartDetection: 0
  m_ImportantGI: 0
  m_StitchLightmapSeams: 1
  m_SelectedEditorRenderState: 3
  m_MinimumChartSize: 4
  m_AutoUVMaxDistance: 0.5
  m_AutoUVMaxAngle: 89
  m_LightmapParameters: {fileID: 0}
  m_SortingLayerID: 0
  m_SortingLayer: 0
  m_SortingOrder: 0
  m_AdditionalVertexStreams: {fileID: 0}
--- !u!4 &664740221
Transform:
  m_ObjectHideFlags: 0
  m_CorrespondingSourceObject: {fileID: 0}
  m_PrefabInstance: {fileID: 0}
  m_PrefabAsset: {fileID: 0}
  m_GameObject: {fileID: 664740217}
  m_LocalRotation: {x: -0, y: -0, z: -0, w: 1}
  m_LocalPosition: {x: -0.15, y: 0.228, z: 0.6}
  m_LocalScale: {x: 0.10000001, y: 0.1, z: 0.10000001}
  m_Children:
  - {fileID: 1916365762}
  m_Father: {fileID: 0}
  m_RootOrder: 3
  m_LocalEulerAnglesHint: {x: 0, y: 0, z: 0}
--- !u!1 &705507993
GameObject:
  m_ObjectHideFlags: 0
  m_CorrespondingSourceObject: {fileID: 0}
  m_PrefabInstance: {fileID: 0}
  m_PrefabAsset: {fileID: 0}
  serializedVersion: 6
  m_Component:
  - component: {fileID: 705507995}
  - component: {fileID: 705507994}
  m_Layer: 0
  m_Name: Directional Light
  m_TagString: Untagged
  m_Icon: {fileID: 0}
  m_NavMeshLayer: 0
  m_StaticEditorFlags: 0
  m_IsActive: 1
--- !u!108 &705507994
Light:
  m_ObjectHideFlags: 0
  m_CorrespondingSourceObject: {fileID: 0}
  m_PrefabInstance: {fileID: 0}
  m_PrefabAsset: {fileID: 0}
  m_GameObject: {fileID: 705507993}
  m_Enabled: 1
  serializedVersion: 10
  m_Type: 1
  m_Shape: 0
  m_Color: {r: 1, g: 0.95686275, b: 0.8392157, a: 1}
  m_Intensity: 1
  m_Range: 10
  m_SpotAngle: 30
  m_InnerSpotAngle: 21.802082
  m_CookieSize: 10
  m_Shadows:
    m_Type: 2
    m_Resolution: -1
    m_CustomResolution: -1
    m_Strength: 1
    m_Bias: 0.05
    m_NormalBias: 0.4
    m_NearPlane: 0.2
    m_CullingMatrixOverride:
      e00: 1
      e01: 0
      e02: 0
      e03: 0
      e10: 0
      e11: 1
      e12: 0
      e13: 0
      e20: 0
      e21: 0
      e22: 1
      e23: 0
      e30: 0
      e31: 0
      e32: 0
      e33: 1
    m_UseCullingMatrixOverride: 0
  m_Cookie: {fileID: 0}
  m_DrawHalo: 0
  m_Flare: {fileID: 0}
  m_RenderMode: 0
  m_CullingMask:
    serializedVersion: 2
    m_Bits: 4294967295
  m_RenderingLayerMask: 1
  m_Lightmapping: 1
  m_LightShadowCasterMode: 0
  m_AreaSize: {x: 1, y: 1}
  m_BounceIntensity: 1
  m_ColorTemperature: 6570
  m_UseColorTemperature: 0
  m_BoundingSphereOverride: {x: 0, y: 0, z: 0, w: 0}
  m_UseBoundingSphereOverride: 0
  m_UseViewFrustumForShadowCasterCull: 1
  m_ShadowRadius: 0
  m_ShadowAngle: 0
--- !u!4 &705507995
Transform:
  m_ObjectHideFlags: 0
  m_CorrespondingSourceObject: {fileID: 0}
  m_PrefabInstance: {fileID: 0}
  m_PrefabAsset: {fileID: 0}
  m_GameObject: {fileID: 705507993}
  m_LocalRotation: {x: 0.40821788, y: -0.23456968, z: 0.10938163, w: 0.8754261}
  m_LocalPosition: {x: 0, y: 3, z: 0}
  m_LocalScale: {x: 1, y: 1, z: 1}
  m_Children: []
  m_Father: {fileID: 0}
  m_RootOrder: 0
  m_LocalEulerAnglesHint: {x: 50, y: -30, z: 0}
--- !u!1 &756263683
GameObject:
  m_ObjectHideFlags: 0
  m_CorrespondingSourceObject: {fileID: 0}
  m_PrefabInstance: {fileID: 0}
  m_PrefabAsset: {fileID: 0}
  serializedVersion: 6
  m_Component:
  - component: {fileID: 756263684}
  - component: {fileID: 756263687}
  - component: {fileID: 756263686}
  - component: {fileID: 756263685}
  m_Layer: 0
  m_Name: ViewSpaceObject
  m_TagString: Untagged
  m_Icon: {fileID: 0}
  m_NavMeshLayer: 0
  m_StaticEditorFlags: 0
  m_IsActive: 1
--- !u!4 &756263684
Transform:
  m_ObjectHideFlags: 0
  m_CorrespondingSourceObject: {fileID: 0}
  m_PrefabInstance: {fileID: 0}
  m_PrefabAsset: {fileID: 0}
  m_GameObject: {fileID: 756263683}
  m_LocalRotation: {x: 0, y: 0, z: 0, w: 1}
  m_LocalPosition: {x: 0, y: 0, z: 2}
  m_LocalScale: {x: 0.1, y: 0.1, z: 0.5}
  m_Children: []
  m_Father: {fileID: 1520206467}
  m_RootOrder: 0
  m_LocalEulerAnglesHint: {x: 0, y: 0, z: 0}
--- !u!135 &756263685
SphereCollider:
  m_ObjectHideFlags: 0
  m_CorrespondingSourceObject: {fileID: 0}
  m_PrefabInstance: {fileID: 0}
  m_PrefabAsset: {fileID: 0}
  m_GameObject: {fileID: 756263683}
  m_Material: {fileID: 0}
  m_IsTrigger: 0
  m_Enabled: 1
  serializedVersion: 2
  m_Radius: 0.5
  m_Center: {x: 0, y: 0, z: 0}
--- !u!23 &756263686
MeshRenderer:
  m_ObjectHideFlags: 0
  m_CorrespondingSourceObject: {fileID: 0}
  m_PrefabInstance: {fileID: 0}
  m_PrefabAsset: {fileID: 0}
  m_GameObject: {fileID: 756263683}
  m_Enabled: 1
  m_CastShadows: 1
  m_ReceiveShadows: 1
  m_DynamicOccludee: 1
  m_MotionVectors: 1
  m_LightProbeUsage: 1
  m_ReflectionProbeUsage: 1
  m_RayTracingMode: 2
  m_RayTraceProcedural: 0
  m_RenderingLayerMask: 1
  m_RendererPriority: 0
  m_Materials:
  - {fileID: 10303, guid: 0000000000000000f000000000000000, type: 0}
  m_StaticBatchInfo:
    firstSubMesh: 0
    subMeshCount: 0
  m_StaticBatchRoot: {fileID: 0}
  m_ProbeAnchor: {fileID: 0}
  m_LightProbeVolumeOverride: {fileID: 0}
  m_ScaleInLightmap: 1
  m_ReceiveGI: 1
  m_PreserveUVs: 0
  m_IgnoreNormalsForChartDetection: 0
  m_ImportantGI: 0
  m_StitchLightmapSeams: 1
  m_SelectedEditorRenderState: 3
  m_MinimumChartSize: 4
  m_AutoUVMaxDistance: 0.5
  m_AutoUVMaxAngle: 89
  m_LightmapParameters: {fileID: 0}
  m_SortingLayerID: 0
  m_SortingLayer: 0
  m_SortingOrder: 0
  m_AdditionalVertexStreams: {fileID: 0}
--- !u!33 &756263687
MeshFilter:
  m_ObjectHideFlags: 0
  m_CorrespondingSourceObject: {fileID: 0}
  m_PrefabInstance: {fileID: 0}
  m_PrefabAsset: {fileID: 0}
  m_GameObject: {fileID: 756263683}
  m_Mesh: {fileID: 10207, guid: 0000000000000000e000000000000000, type: 0}
--- !u!1001 &950971707
PrefabInstance:
  m_ObjectHideFlags: 0
  serializedVersion: 2
  m_Modification:
    m_TransformParent: {fileID: 183660408}
    m_Modifications:
    - target: {fileID: 1833891481169546174, guid: a61efc67d16e5994c98d4c644b5a5822,
        type: 3}
      propertyPath: m_Name
      value: 'Set plane detection mode: Horizontal'
      objectReference: {fileID: 0}
    - target: {fileID: 3973135738514450453, guid: a61efc67d16e5994c98d4c644b5a5822,
        type: 3}
      propertyPath: m_Text
      value: 'Set plane detection

        mode: Horizontal'
      objectReference: {fileID: 0}
    - target: {fileID: 4421050970632821918, guid: a61efc67d16e5994c98d4c644b5a5822,
        type: 3}
      propertyPath: m_RootOrder
      value: 1
      objectReference: {fileID: 0}
    - target: {fileID: 4421050970632821918, guid: a61efc67d16e5994c98d4c644b5a5822,
        type: 3}
      propertyPath: m_LocalPosition.x
      value: 0.008862153
      objectReference: {fileID: 0}
    - target: {fileID: 4421050970632821918, guid: a61efc67d16e5994c98d4c644b5a5822,
        type: 3}
      propertyPath: m_LocalPosition.y
      value: -0.15031466
      objectReference: {fileID: 0}
    - target: {fileID: 4421050970632821918, guid: a61efc67d16e5994c98d4c644b5a5822,
        type: 3}
      propertyPath: m_LocalPosition.z
      value: -0.16217044
      objectReference: {fileID: 0}
    - target: {fileID: 4421050970632821918, guid: a61efc67d16e5994c98d4c644b5a5822,
        type: 3}
      propertyPath: m_LocalRotation.w
      value: 1
      objectReference: {fileID: 0}
    - target: {fileID: 4421050970632821918, guid: a61efc67d16e5994c98d4c644b5a5822,
        type: 3}
      propertyPath: m_LocalRotation.x
      value: -0
      objectReference: {fileID: 0}
    - target: {fileID: 4421050970632821918, guid: a61efc67d16e5994c98d4c644b5a5822,
        type: 3}
      propertyPath: m_LocalRotation.y
      value: -0
      objectReference: {fileID: 0}
    - target: {fileID: 4421050970632821918, guid: a61efc67d16e5994c98d4c644b5a5822,
        type: 3}
      propertyPath: m_LocalRotation.z
      value: -0
      objectReference: {fileID: 0}
    - target: {fileID: 4421050970632821918, guid: a61efc67d16e5994c98d4c644b5a5822,
        type: 3}
      propertyPath: m_LocalEulerAnglesHint.x
      value: 0
      objectReference: {fileID: 0}
    - target: {fileID: 4421050970632821918, guid: a61efc67d16e5994c98d4c644b5a5822,
        type: 3}
      propertyPath: m_LocalEulerAnglesHint.y
      value: 0
      objectReference: {fileID: 0}
    - target: {fileID: 4421050970632821918, guid: a61efc67d16e5994c98d4c644b5a5822,
        type: 3}
      propertyPath: m_LocalEulerAnglesHint.z
      value: 0
      objectReference: {fileID: 0}
    - target: {fileID: 5246070923546433650, guid: a61efc67d16e5994c98d4c644b5a5822,
        type: 3}
      propertyPath: OnAirTapped.m_PersistentCalls.m_Calls.Array.size
      value: 1
      objectReference: {fileID: 0}
    - target: {fileID: 5246070923546433650, guid: a61efc67d16e5994c98d4c644b5a5822,
        type: 3}
      propertyPath: OnAirTapped.m_PersistentCalls.m_Calls.Array.data[0].m_Mode
      value: 3
      objectReference: {fileID: 0}
    - target: {fileID: 5246070923546433650, guid: a61efc67d16e5994c98d4c644b5a5822,
        type: 3}
      propertyPath: OnAirTapped.m_PersistentCalls.m_Calls.Array.data[0].m_Target
      value: 
      objectReference: {fileID: 1158897731}
    - target: {fileID: 5246070923546433650, guid: a61efc67d16e5994c98d4c644b5a5822,
        type: 3}
      propertyPath: OnAirTapped.m_PersistentCalls.m_Calls.Array.data[0].m_CallState
      value: 2
      objectReference: {fileID: 0}
    - target: {fileID: 5246070923546433650, guid: a61efc67d16e5994c98d4c644b5a5822,
        type: 3}
      propertyPath: OnAirTapped.m_PersistentCalls.m_Calls.Array.data[0].m_MethodName
      value: SetPlaneDetectionMode
      objectReference: {fileID: 0}
    - target: {fileID: 5246070923546433650, guid: a61efc67d16e5994c98d4c644b5a5822,
        type: 3}
      propertyPath: OnAirTapped.m_PersistentCalls.m_Calls.Array.data[0].m_TargetAssemblyTypeName
      value: Microsoft.MixedReality.OpenXR.Samples.PlanesSample, Assembly-CSharp
      objectReference: {fileID: 0}
    - target: {fileID: 5246070923546433650, guid: a61efc67d16e5994c98d4c644b5a5822,
        type: 3}
      propertyPath: OnAirTapped.m_PersistentCalls.m_Calls.Array.data[0].m_Arguments.m_IntArgument
      value: 1
      objectReference: {fileID: 0}
    - target: {fileID: 5246070923546433650, guid: a61efc67d16e5994c98d4c644b5a5822,
        type: 3}
      propertyPath: OnAirTapped.m_PersistentCalls.m_Calls.Array.data[0].m_Arguments.m_StringArgument
      value: SampleScene
      objectReference: {fileID: 0}
    - target: {fileID: 5246070923546433650, guid: a61efc67d16e5994c98d4c644b5a5822,
        type: 3}
      propertyPath: OnAirTapped.m_PersistentCalls.m_Calls.Array.data[0].m_Arguments.m_ObjectArgumentAssemblyTypeName
      value: UnityEngine.Object, UnityEngine
      objectReference: {fileID: 0}
    m_RemovedComponents: []
  m_SourcePrefab: {fileID: 100100000, guid: a61efc67d16e5994c98d4c644b5a5822, type: 3}
--- !u!4 &950971708 stripped
Transform:
  m_CorrespondingSourceObject: {fileID: 4421050970632821918, guid: a61efc67d16e5994c98d4c644b5a5822,
    type: 3}
  m_PrefabInstance: {fileID: 950971707}
  m_PrefabAsset: {fileID: 0}
--- !u!1 &950971709 stripped
GameObject:
  m_CorrespondingSourceObject: {fileID: 1833891481169546174, guid: a61efc67d16e5994c98d4c644b5a5822,
    type: 3}
  m_PrefabInstance: {fileID: 950971707}
  m_PrefabAsset: {fileID: 0}
--- !u!114 &950971710
MonoBehaviour:
  m_ObjectHideFlags: 0
  m_CorrespondingSourceObject: {fileID: 0}
  m_PrefabInstance: {fileID: 0}
  m_PrefabAsset: {fileID: 0}
  m_GameObject: {fileID: 950971709}
  m_Enabled: 1
  m_EditorHideFlags: 0
  m_Script: {fileID: 11500000, guid: fcac2d8dbc14139409e77b5ed36498db, type: 3}
  m_Name: 
  m_EditorClassIdentifier: 
--- !u!1 &1158897726
GameObject:
  m_ObjectHideFlags: 0
  m_CorrespondingSourceObject: {fileID: 0}
  m_PrefabInstance: {fileID: 0}
  m_PrefabAsset: {fileID: 0}
  serializedVersion: 6
  m_Component:
  - component: {fileID: 1158897728}
  - component: {fileID: 1158897727}
  - component: {fileID: 1158897730}
  - component: {fileID: 1158897729}
  - component: {fileID: 1158897731}
  m_Layer: 0
  m_Name: AR Session Origin
  m_TagString: Untagged
  m_Icon: {fileID: 0}
  m_NavMeshLayer: 0
  m_StaticEditorFlags: 0
  m_IsActive: 1
--- !u!114 &1158897727
MonoBehaviour:
  m_ObjectHideFlags: 0
  m_CorrespondingSourceObject: {fileID: 0}
  m_PrefabInstance: {fileID: 0}
  m_PrefabAsset: {fileID: 0}
  m_GameObject: {fileID: 1158897726}
  m_Enabled: 1
  m_EditorHideFlags: 0
  m_Script: {fileID: 11500000, guid: 520bb47c46cf8624fafb307b7d1b862a, type: 3}
  m_Name: 
  m_EditorClassIdentifier: 
  m_Camera: {fileID: 1520206463}
--- !u!4 &1158897728
Transform:
  m_ObjectHideFlags: 0
  m_CorrespondingSourceObject: {fileID: 0}
  m_PrefabInstance: {fileID: 0}
  m_PrefabAsset: {fileID: 0}
  m_GameObject: {fileID: 1158897726}
  m_LocalRotation: {x: 0, y: 0, z: 0, w: 1}
  m_LocalPosition: {x: 0, y: 0, z: 0}
  m_LocalScale: {x: 1, y: 1, z: 1}
  m_Children:
  - {fileID: 1520206467}
  m_Father: {fileID: 0}
  m_RootOrder: 2
  m_LocalEulerAnglesHint: {x: 0, y: 0, z: 0}
--- !u!114 &1158897729
MonoBehaviour:
  m_ObjectHideFlags: 0
  m_CorrespondingSourceObject: {fileID: 0}
  m_PrefabInstance: {fileID: 0}
  m_PrefabAsset: {fileID: 0}
  m_GameObject: {fileID: 1158897726}
  m_Enabled: 1
  m_EditorHideFlags: 0
  m_Script: {fileID: 11500000, guid: ce39d28887930cc46bb9a7bb6cd3e02d, type: 3}
  m_Name: 
  m_EditorClassIdentifier: 
--- !u!114 &1158897730
MonoBehaviour:
  m_ObjectHideFlags: 0
  m_CorrespondingSourceObject: {fileID: 0}
  m_PrefabInstance: {fileID: 0}
  m_PrefabAsset: {fileID: 0}
  m_GameObject: {fileID: 1158897726}
  m_Enabled: 1
  m_EditorHideFlags: 0
  m_Script: {fileID: 11500000, guid: e1760703bbd54c04488a8d10600262ab, type: 3}
  m_Name: 
  m_EditorClassIdentifier: 
  m_PlanePrefab: {fileID: 6051466164203261934, guid: 17aa10f9cad8ac545b7701a52575a1cd,
    type: 3}
  m_DetectionMode: -1
--- !u!114 &1158897731
MonoBehaviour:
  m_ObjectHideFlags: 0
  m_CorrespondingSourceObject: {fileID: 0}
  m_PrefabInstance: {fileID: 0}
  m_PrefabAsset: {fileID: 0}
  m_GameObject: {fileID: 1158897726}
  m_Enabled: 1
  m_EditorHideFlags: 0
  m_Script: {fileID: 11500000, guid: 9e6fccd19328e674388a85eedcf83d08, type: 3}
  m_Name: 
  m_EditorClassIdentifier: 
  m_sampleText: {fileID: 664740219}
--- !u!1 &1520206462
GameObject:
  m_ObjectHideFlags: 0
  m_CorrespondingSourceObject: {fileID: 0}
  m_PrefabInstance: {fileID: 0}
  m_PrefabAsset: {fileID: 0}
  serializedVersion: 6
  m_Component:
  - component: {fileID: 1520206467}
  - component: {fileID: 1520206463}
  - component: {fileID: 1520206466}
  - component: {fileID: 1520206465}
  - component: {fileID: 1520206464}
  m_Layer: 0
  m_Name: AR Camera
  m_TagString: MainCamera
  m_Icon: {fileID: 0}
  m_NavMeshLayer: 0
  m_StaticEditorFlags: 0
  m_IsActive: 1
--- !u!20 &1520206463
Camera:
  m_ObjectHideFlags: 0
  m_CorrespondingSourceObject: {fileID: 0}
  m_PrefabInstance: {fileID: 0}
  m_PrefabAsset: {fileID: 0}
  m_GameObject: {fileID: 1520206462}
  m_Enabled: 1
  serializedVersion: 2
  m_ClearFlags: 2
  m_BackGroundColor: {r: 0, g: 0, b: 0, a: 1}
  m_projectionMatrixMode: 1
  m_GateFitMode: 2
  m_FOVAxisMode: 0
  m_SensorSize: {x: 36, y: 24}
  m_LensShift: {x: 0, y: 0}
  m_FocalLength: 50
  m_NormalizedViewPortRect:
    serializedVersion: 2
    x: 0
    y: 0
    width: 1
    height: 1
  near clip plane: 0.1
  far clip plane: 20
  field of view: 60
  orthographic: 0
  orthographic size: 5
  m_Depth: 0
  m_CullingMask:
    serializedVersion: 2
    m_Bits: 4294967295
  m_RenderingPath: -1
  m_TargetTexture: {fileID: 0}
  m_TargetDisplay: 0
  m_TargetEye: 3
  m_HDR: 1
  m_AllowMSAA: 1
  m_AllowDynamicResolution: 0
  m_ForceIntoRT: 0
  m_OcclusionCulling: 1
  m_StereoConvergence: 10
  m_StereoSeparation: 0.022
--- !u!114 &1520206464
MonoBehaviour:
  m_ObjectHideFlags: 0
  m_CorrespondingSourceObject: {fileID: 0}
  m_PrefabInstance: {fileID: 0}
  m_PrefabAsset: {fileID: 0}
  m_GameObject: {fileID: 1520206462}
  m_Enabled: 1
  m_EditorHideFlags: 0
  m_Script: {fileID: 11500000, guid: 816b289ef451e094f9ae174fb4cf8db0, type: 3}
  m_Name: 
  m_EditorClassIdentifier: 
  m_UseCustomMaterial: 0
  m_CustomMaterial: {fileID: 0}
--- !u!114 &1520206465
MonoBehaviour:
  m_ObjectHideFlags: 0
  m_CorrespondingSourceObject: {fileID: 0}
  m_PrefabInstance: {fileID: 0}
  m_PrefabAsset: {fileID: 0}
  m_GameObject: {fileID: 1520206462}
  m_Enabled: 1
  m_EditorHideFlags: 0
  m_Script: {fileID: 11500000, guid: 4966719baa26e4b0e8231a24d9bd491a, type: 3}
  m_Name: 
  m_EditorClassIdentifier: 
  m_FocusMode: -1
  m_LightEstimationMode: -1
  m_AutoFocus: 1
  m_LightEstimation: 0
  m_FacingDirection: 1
--- !u!114 &1520206466
MonoBehaviour:
  m_ObjectHideFlags: 0
  m_CorrespondingSourceObject: {fileID: 0}
  m_PrefabInstance: {fileID: 0}
  m_PrefabAsset: {fileID: 0}
  m_GameObject: {fileID: 1520206462}
  m_Enabled: 1
  m_EditorHideFlags: 0
  m_Script: {fileID: 11500000, guid: 6e3c44306fb1e439a9f18b2212b8ab70, type: 3}
  m_Name: 
  m_EditorClassIdentifier: 
--- !u!4 &1520206467
Transform:
  m_ObjectHideFlags: 0
  m_CorrespondingSourceObject: {fileID: 0}
  m_PrefabInstance: {fileID: 0}
  m_PrefabAsset: {fileID: 0}
  m_GameObject: {fileID: 1520206462}
  m_LocalRotation: {x: 0, y: 0, z: 0, w: 1}
  m_LocalPosition: {x: 0, y: 0, z: 0}
  m_LocalScale: {x: 1, y: 1, z: 1}
  m_Children:
  - {fileID: 756263684}
  m_Father: {fileID: 1158897728}
  m_RootOrder: 0
  m_LocalEulerAnglesHint: {x: 0, y: 0, z: 0}
--- !u!1001 &1776374804
PrefabInstance:
  m_ObjectHideFlags: 0
  serializedVersion: 2
  m_Modification:
    m_TransformParent: {fileID: 183660408}
    m_Modifications:
    - target: {fileID: 1833891481169546174, guid: a61efc67d16e5994c98d4c644b5a5822,
        type: 3}
      propertyPath: m_Name
      value: 'Set plane detection mode: All'
      objectReference: {fileID: 0}
    - target: {fileID: 3973135738514450453, guid: a61efc67d16e5994c98d4c644b5a5822,
        type: 3}
      propertyPath: m_Text
      value: 'Set plane detection

        mode: All'
      objectReference: {fileID: 0}
    - target: {fileID: 4421050970632821918, guid: a61efc67d16e5994c98d4c644b5a5822,
        type: 3}
      propertyPath: m_RootOrder
      value: 3
      objectReference: {fileID: 0}
    - target: {fileID: 4421050970632821918, guid: a61efc67d16e5994c98d4c644b5a5822,
        type: 3}
      propertyPath: m_LocalPosition.x
      value: 0.40886217
      objectReference: {fileID: 0}
    - target: {fileID: 4421050970632821918, guid: a61efc67d16e5994c98d4c644b5a5822,
        type: 3}
      propertyPath: m_LocalPosition.y
      value: -0.15031466
      objectReference: {fileID: 0}
    - target: {fileID: 4421050970632821918, guid: a61efc67d16e5994c98d4c644b5a5822,
        type: 3}
      propertyPath: m_LocalPosition.z
      value: -0.16217044
      objectReference: {fileID: 0}
    - target: {fileID: 4421050970632821918, guid: a61efc67d16e5994c98d4c644b5a5822,
        type: 3}
      propertyPath: m_LocalRotation.w
      value: 1
      objectReference: {fileID: 0}
    - target: {fileID: 4421050970632821918, guid: a61efc67d16e5994c98d4c644b5a5822,
        type: 3}
      propertyPath: m_LocalRotation.x
      value: -0
      objectReference: {fileID: 0}
    - target: {fileID: 4421050970632821918, guid: a61efc67d16e5994c98d4c644b5a5822,
        type: 3}
      propertyPath: m_LocalRotation.y
      value: -0
      objectReference: {fileID: 0}
    - target: {fileID: 4421050970632821918, guid: a61efc67d16e5994c98d4c644b5a5822,
        type: 3}
      propertyPath: m_LocalRotation.z
      value: -0
      objectReference: {fileID: 0}
    - target: {fileID: 4421050970632821918, guid: a61efc67d16e5994c98d4c644b5a5822,
        type: 3}
      propertyPath: m_LocalEulerAnglesHint.x
      value: 0
      objectReference: {fileID: 0}
    - target: {fileID: 4421050970632821918, guid: a61efc67d16e5994c98d4c644b5a5822,
        type: 3}
      propertyPath: m_LocalEulerAnglesHint.y
      value: 0
      objectReference: {fileID: 0}
    - target: {fileID: 4421050970632821918, guid: a61efc67d16e5994c98d4c644b5a5822,
        type: 3}
      propertyPath: m_LocalEulerAnglesHint.z
      value: 0
      objectReference: {fileID: 0}
    - target: {fileID: 5246070923546433650, guid: a61efc67d16e5994c98d4c644b5a5822,
        type: 3}
      propertyPath: OnAirTapped.m_PersistentCalls.m_Calls.Array.size
      value: 1
      objectReference: {fileID: 0}
    - target: {fileID: 5246070923546433650, guid: a61efc67d16e5994c98d4c644b5a5822,
        type: 3}
      propertyPath: OnAirTapped.m_PersistentCalls.m_Calls.Array.data[0].m_Mode
      value: 3
      objectReference: {fileID: 0}
    - target: {fileID: 5246070923546433650, guid: a61efc67d16e5994c98d4c644b5a5822,
        type: 3}
      propertyPath: OnAirTapped.m_PersistentCalls.m_Calls.Array.data[0].m_Target
      value: 
      objectReference: {fileID: 1158897731}
    - target: {fileID: 5246070923546433650, guid: a61efc67d16e5994c98d4c644b5a5822,
        type: 3}
      propertyPath: OnAirTapped.m_PersistentCalls.m_Calls.Array.data[0].m_CallState
      value: 2
      objectReference: {fileID: 0}
    - target: {fileID: 5246070923546433650, guid: a61efc67d16e5994c98d4c644b5a5822,
        type: 3}
      propertyPath: OnAirTapped.m_PersistentCalls.m_Calls.Array.data[0].m_MethodName
      value: SetPlaneDetectionMode
      objectReference: {fileID: 0}
    - target: {fileID: 5246070923546433650, guid: a61efc67d16e5994c98d4c644b5a5822,
        type: 3}
      propertyPath: OnAirTapped.m_PersistentCalls.m_Calls.Array.data[0].m_TargetAssemblyTypeName
      value: Microsoft.MixedReality.OpenXR.Samples.PlanesSample, Assembly-CSharp
      objectReference: {fileID: 0}
    - target: {fileID: 5246070923546433650, guid: a61efc67d16e5994c98d4c644b5a5822,
        type: 3}
      propertyPath: OnAirTapped.m_PersistentCalls.m_Calls.Array.data[0].m_Arguments.m_IntArgument
      value: 3
      objectReference: {fileID: 0}
    - target: {fileID: 5246070923546433650, guid: a61efc67d16e5994c98d4c644b5a5822,
        type: 3}
      propertyPath: OnAirTapped.m_PersistentCalls.m_Calls.Array.data[0].m_Arguments.m_StringArgument
      value: SampleScene
      objectReference: {fileID: 0}
    - target: {fileID: 5246070923546433650, guid: a61efc67d16e5994c98d4c644b5a5822,
        type: 3}
      propertyPath: OnAirTapped.m_PersistentCalls.m_Calls.Array.data[0].m_Arguments.m_ObjectArgumentAssemblyTypeName
      value: UnityEngine.Object, UnityEngine
      objectReference: {fileID: 0}
    m_RemovedComponents: []
  m_SourcePrefab: {fileID: 100100000, guid: a61efc67d16e5994c98d4c644b5a5822, type: 3}
--- !u!4 &1776374805 stripped
Transform:
  m_CorrespondingSourceObject: {fileID: 4421050970632821918, guid: a61efc67d16e5994c98d4c644b5a5822,
    type: 3}
  m_PrefabInstance: {fileID: 1776374804}
  m_PrefabAsset: {fileID: 0}
--- !u!1 &1776374806 stripped
GameObject:
  m_CorrespondingSourceObject: {fileID: 1833891481169546174, guid: a61efc67d16e5994c98d4c644b5a5822,
    type: 3}
  m_PrefabInstance: {fileID: 1776374804}
  m_PrefabAsset: {fileID: 0}
--- !u!114 &1776374807
MonoBehaviour:
  m_ObjectHideFlags: 0
  m_CorrespondingSourceObject: {fileID: 0}
  m_PrefabInstance: {fileID: 0}
  m_PrefabAsset: {fileID: 0}
  m_GameObject: {fileID: 1776374806}
  m_Enabled: 1
  m_EditorHideFlags: 0
  m_Script: {fileID: 11500000, guid: fcac2d8dbc14139409e77b5ed36498db, type: 3}
  m_Name: 
  m_EditorClassIdentifier: 
--- !u!1 &1916365761
GameObject:
  m_ObjectHideFlags: 0
  m_CorrespondingSourceObject: {fileID: 0}
  m_PrefabInstance: {fileID: 0}
  m_PrefabAsset: {fileID: 0}
  serializedVersion: 6
  m_Component:
  - component: {fileID: 1916365762}
  - component: {fileID: 1916365765}
  - component: {fileID: 1916365764}
  - component: {fileID: 1916365763}
  m_Layer: 0
  m_Name: Backplate
  m_TagString: Untagged
  m_Icon: {fileID: 0}
  m_NavMeshLayer: 0
  m_StaticEditorFlags: 0
  m_IsActive: 1
--- !u!4 &1916365762
Transform:
  m_ObjectHideFlags: 0
  m_CorrespondingSourceObject: {fileID: 0}
  m_PrefabInstance: {fileID: 0}
  m_PrefabAsset: {fileID: 0}
  m_GameObject: {fileID: 1916365761}
  m_LocalRotation: {x: -0.7071068, y: 0, z: 0, w: 0.7071068}
  m_LocalPosition: {x: 1.5, y: -0.25, z: 0}
  m_LocalScale: {x: 0.35, y: 1, z: 0.1}
  m_Children: []
  m_Father: {fileID: 664740221}
  m_RootOrder: 0
  m_LocalEulerAnglesHint: {x: -90, y: 0, z: 0}
--- !u!64 &1916365763
MeshCollider:
  m_ObjectHideFlags: 0
  m_CorrespondingSourceObject: {fileID: 0}
  m_PrefabInstance: {fileID: 0}
  m_PrefabAsset: {fileID: 0}
  m_GameObject: {fileID: 1916365761}
  m_Material: {fileID: 0}
  m_IsTrigger: 0
  m_Enabled: 1
  serializedVersion: 4
  m_Convex: 0
  m_CookingOptions: 30
  m_Mesh: {fileID: 10209, guid: 0000000000000000e000000000000000, type: 0}
--- !u!23 &1916365764
MeshRenderer:
  m_ObjectHideFlags: 0
  m_CorrespondingSourceObject: {fileID: 0}
  m_PrefabInstance: {fileID: 0}
  m_PrefabAsset: {fileID: 0}
  m_GameObject: {fileID: 1916365761}
  m_Enabled: 1
  m_CastShadows: 1
  m_ReceiveShadows: 1
  m_DynamicOccludee: 1
  m_MotionVectors: 1
  m_LightProbeUsage: 1
  m_ReflectionProbeUsage: 1
  m_RayTracingMode: 2
  m_RayTraceProcedural: 0
  m_RenderingLayerMask: 1
  m_RendererPriority: 0
  m_Materials:
  - {fileID: 2100000, guid: c7fe5a889469afb45b744988dbd03e5c, type: 2}
  m_StaticBatchInfo:
    firstSubMesh: 0
    subMeshCount: 0
  m_StaticBatchRoot: {fileID: 0}
  m_ProbeAnchor: {fileID: 0}
  m_LightProbeVolumeOverride: {fileID: 0}
  m_ScaleInLightmap: 1
  m_ReceiveGI: 1
  m_PreserveUVs: 0
  m_IgnoreNormalsForChartDetection: 0
  m_ImportantGI: 0
  m_StitchLightmapSeams: 1
  m_SelectedEditorRenderState: 3
  m_MinimumChartSize: 4
  m_AutoUVMaxDistance: 0.5
  m_AutoUVMaxAngle: 89
  m_LightmapParameters: {fileID: 0}
  m_SortingLayerID: 0
  m_SortingLayer: 0
  m_SortingOrder: 0
  m_AdditionalVertexStreams: {fileID: 0}
--- !u!33 &1916365765
MeshFilter:
  m_ObjectHideFlags: 0
  m_CorrespondingSourceObject: {fileID: 0}
  m_PrefabInstance: {fileID: 0}
  m_PrefabAsset: {fileID: 0}
  m_GameObject: {fileID: 1916365761}
  m_Mesh: {fileID: 10209, guid: 0000000000000000e000000000000000, type: 0}
--- !u!1001 &4944742623401637075
PrefabInstance:
  m_ObjectHideFlags: 0
  serializedVersion: 2
  m_Modification:
    m_TransformParent: {fileID: 0}
    m_Modifications:
    - target: {fileID: 4944742623540133923, guid: 96d27fe6fab8a3245ac58a83efbe3a70,
        type: 3}
      propertyPath: m_RootOrder
      value: 5
      objectReference: {fileID: 0}
    - target: {fileID: 4944742623540133923, guid: 96d27fe6fab8a3245ac58a83efbe3a70,
        type: 3}
      propertyPath: m_LocalPosition.x
      value: 0
      objectReference: {fileID: 0}
    - target: {fileID: 4944742623540133923, guid: 96d27fe6fab8a3245ac58a83efbe3a70,
        type: 3}
      propertyPath: m_LocalPosition.y
      value: 0
      objectReference: {fileID: 0}
    - target: {fileID: 4944742623540133923, guid: 96d27fe6fab8a3245ac58a83efbe3a70,
        type: 3}
      propertyPath: m_LocalPosition.z
      value: 0
      objectReference: {fileID: 0}
    - target: {fileID: 4944742623540133923, guid: 96d27fe6fab8a3245ac58a83efbe3a70,
        type: 3}
      propertyPath: m_LocalRotation.w
      value: 1
      objectReference: {fileID: 0}
    - target: {fileID: 4944742623540133923, guid: 96d27fe6fab8a3245ac58a83efbe3a70,
        type: 3}
      propertyPath: m_LocalRotation.x
      value: 0
      objectReference: {fileID: 0}
    - target: {fileID: 4944742623540133923, guid: 96d27fe6fab8a3245ac58a83efbe3a70,
        type: 3}
      propertyPath: m_LocalRotation.y
      value: 0
      objectReference: {fileID: 0}
    - target: {fileID: 4944742623540133923, guid: 96d27fe6fab8a3245ac58a83efbe3a70,
        type: 3}
      propertyPath: m_LocalRotation.z
      value: 0
      objectReference: {fileID: 0}
    - target: {fileID: 4944742623540133923, guid: 96d27fe6fab8a3245ac58a83efbe3a70,
        type: 3}
      propertyPath: m_LocalEulerAnglesHint.x
      value: 0
      objectReference: {fileID: 0}
    - target: {fileID: 4944742623540133923, guid: 96d27fe6fab8a3245ac58a83efbe3a70,
        type: 3}
      propertyPath: m_LocalEulerAnglesHint.y
      value: 0
      objectReference: {fileID: 0}
    - target: {fileID: 4944742623540133923, guid: 96d27fe6fab8a3245ac58a83efbe3a70,
        type: 3}
      propertyPath: m_LocalEulerAnglesHint.z
      value: 0
      objectReference: {fileID: 0}
    - target: {fileID: 4944742623540133948, guid: 96d27fe6fab8a3245ac58a83efbe3a70,
        type: 3}
      propertyPath: m_Name
      value: Sample Scene Utilities
      objectReference: {fileID: 0}
    - target: {fileID: 8774695807809130668, guid: 96d27fe6fab8a3245ac58a83efbe3a70,
        type: 3}
      propertyPath: m_LocalPosition.x
      value: -0.4
      objectReference: {fileID: 0}
    m_RemovedComponents: []
  m_SourcePrefab: {fileID: 100100000, guid: 96d27fe6fab8a3245ac58a83efbe3a70, type: 3}
